C1  C2  C3  L3MissRatio VFP VFP_AbsError    VFP_RelError    FP  FP_AbsError
3   0   0   0.05024906  0.05784077  0.00824003  0.15485204  0.04646522  0.00908018
2   1   0   0.03520274  0.03381840  0.00333987  0.09329446  0.02998324  0.00718388
2   0   1   0.02613543  0.02686149  0.00199274  0.07566382  0.02437250  0.00470882
1   2   0   0.02201561  0.01807739  0.00432887  0.19018504  0.01371663  0.00845065
1   1   1   0.01587573  0.01417768  0.00254570  0.16097339  0.01186116  0.00457900
1   0   2   0.01139544  0.01148502  0.00123883  0.11663585  0.01007273  0.00224594
0   3   0   0.00919841  0.00336404  0.00583438  0.60799977  0.00173203  0.00746638
0   2   1   0.00535347  0.00196027  0.00339319  0.54643902  0.00133887  0.00442262
0   1   2   0.00243545  0.00088385  0.00157338  0.52797435  0.00134236  0.00217410
