1   2   3   4                                                   0.992913075611519
1   2   3   9                                                   1.14446759190082
1   2   3   10                                                  1.17723662716269
1   2   3   15                                                  0.995452808745648
1   2   3   18                                                  1.13157568777706
1   2   3   22                                                  1.28520704357914
1   2   3   24                                                  1.23144243966505
1   2   4   9                                                   1.02607360883934
1   2   4   10                                                  1.038911051368
1   2   4   15                                                  0.949327793203661
1   2   4   18                                                  1.02716598843578
1   2   4   22                                                  1.1517283938293
1   2   4   24                                                  1.07692860703952
1   2   9   10                                                  1.24042457071006
1   2   9   15                                                  1.02302296406588
1   2   9   18                                                  1.21080182852057
1   2   9   22                                                  1.37747193512145
1   2   9   24                                                  1.24332482275531
1   2   10  15                                                  1.04300160772405
1   2   10  18                                                  1.26403964030034
1   2   10  22                                                  1.48421610206277
1   2   10  24                                                  1.32198680646435
1   2   15  18                                                  1.02366606462949
1   2   15  22                                                  1.15979288035156
1   2   15  24                                                  1.05239866913028
1   2   18  22                                                  1.48849727397622
1   2   18  24                                                  1.28735998233234
1   2   22  24                                                  1.49459856015765
1   3   4   9                                                   1.05814654600842
1   3   4   10                                                  0.992303389696904
1   3   4   15                                                  0.946199886614822
1   3   4   18                                                  0.961190502136628
1   3   4   22                                                  1.0232691080161
1   3   4   24                                                  1.08627874381459
1   3   9   10                                                  1.19607018745732
1   3   9   15                                                  1.05412440908675
1   3   9   18                                                  1.156399586432
1   3   9   22                                                  1.25870206508608
1   3   9   24                                                  1.27043601967681
1   3   10  15                                                  0.997157623127948
1   3   10  18                                                  1.18758098679229
1   3   10  22                                                  1.34824193996451
1   3   10  24                                                  1.27003280166632
1   3   15  18                                                  0.961861084507927
1   3   15  22                                                  1.02906901225454
1   3   15  24                                                  1.10004168323238
1   3   18  22                                                  1.33701716130291
1   3   18  24                                                  1.23868754581026
1   3   22  24                                                  1.34851067195333
1   4   9   10                                                  1.11070245407718
1   4   9   15                                                  0.977838007603496
1   4   9   18                                                  1.08631978494459
1   4   9   22                                                  1.16764419820655
1   4   9   24                                                  1.08477108504971
1   4   10  15                                                  0.956250553206077
1   4   10  18                                                  1.02616369493117
1   4   10  22                                                  1.11840340020182
1   4   10  24                                                  1.14116484944525
1   4   15  18                                                  0.947715748176094
1   4   15  22                                                  0.994131218706128
1   4   15  24                                                  0.989608003917092
1   4   18  22                                                  1.09040064949344
1   4   18  24                                                  1.1279124219753
1   4   22  24                                                  1.24333974437146
1   9   10  15                                                  1.14013965238144
1   9   10  18                                                  1.25599694688565
1   9   10  22                                                  1.40213258474043
1   9   10  24                                                  1.33691456393087
1   9   15  18                                                  1.08414521144849
1   9   15  22                                                  1.16886807021812
1   9   15  24                                                  1.07539166088703
1   9   18  22                                                  1.40617099647268
1   9   18  24                                                  1.32075391863949
1   9   22  24                                                  1.46899792908642
1   10  15  18                                                  1.03025417541262
1   10  15  22                                                  1.13879257550717
1   10  15  24                                                  1.14428946471646
1   10  18  22                                                  1.6463019954277
1   10  18  24                                                  1.35318598947683
1   10  22  24                                                  1.57364712254312
1   15  18  22                                                  1.10461980344687
1   15  18  24                                                  1.11741160969101
1   15  22  24                                                  1.25148593032509
1   18  22  24                                                  1.59713015471039
2   3   4   9                                                   1.10850169151234
2   3   4   10                                                  1.10339451126172
2   3   4   15                                                  0.966692241747273
2   3   4   18                                                  1.08283568533686
2   3   4   22                                                  1.21357976608153
2   3   4   24                                                  1.18205688701456
2   3   9   10                                                  1.3616220990643
2   3   9   15                                                  1.11182013089591
2   3   9   18                                                  1.31682844872068
2   3   9   22                                                  1.49181086444174
2   3   9   24                                                  1.37779230192817
2   3   10  15                                                  1.09873340713886
2   3   10  18                                                  1.44353976867274
2   3   10  22                                                  1.74157340182217
2   3   10  24                                                  1.46559341594144
2   3   15  18                                                  1.08720558260682
2   3   15  22                                                  1.21227874386333
2   3   15  24                                                  1.1771336237587
2   3   18  22                                                  1.77020207401474
2   3   18  24                                                  1.42105466022704
2   3   22  24                                                  1.67301298864365
2   4   9   10                                                  1.19461436138577
2   4   9   15                                                  1.00183147831321
2   4   9   18                                                  1.16404400715988
2   4   9   22                                                  1.32575249497988
2   4   9   24                                                  1.18813067000372
2   4   10  15                                                  1.00160392956076
2   4   10  18                                                  1.18778178450237
2   4   10  22                                                  1.36264086355584
2   4   10  24                                                  1.253902539376
2   4   15  18                                                  0.991291857752065
2   4   15  22                                                  1.09351776872206
2   4   15  24                                                  1.02775460466918
2   4   18  22                                                  1.35511484549933
2   4   18  24                                                  1.22679826951582
2   4   22  24                                                  1.44039393214325
2   9   10  15                                                  1.19800001595477
2   9   10  18                                                  1.47506433022911
2   9   10  22                                                  1.72699973890029
2   9   10  24                                                  1.51079816903704
2   9   15  18                                                  1.17004299424067
2   9   15  22                                                  1.31072726036186
2   9   15  24                                                  1.23304742453385
2   9   18  22                                                  1.71711006866198
2   9   18  24                                                  1.48019621894607
2   9   22  24                                                  1.6841844312775
2   10  15  18                                                  1.19200586050527
2   10  15  22                                                  1.38327045811455
2   10  15  24                                                  1.24231475349917
2   10  18  22                                                  2.18662217999827
2   10  18  24                                                  1.59637800757047
2   10  22  24                                                  2.03387146045321
2   15  18  22                                                  1.37570980519239
2   15  18  24                                                  1.22429371423187
2   15  22  24                                                  1.41656906853818
2   18  22  24                                                  2.05062563271684
3   4   9   10                                                  1.15517293920788
3   4   9   15                                                  1.02181208636099
3   4   9   18                                                  1.11169245086523
3   4   9   22                                                  1.1817111921648
3   4   9   24                                                  1.23073188341769
3   4   10  15                                                  0.958891249944381
3   4   10  18                                                  1.10901327765778
3   4   10  22                                                  1.24526635407022
3   4   10  24                                                  1.20883819135647
3   4   15  18                                                  0.929166710768723
3   4   15  22                                                  0.979965366136824
3   4   15  24                                                  1.0604708067955
3   4   18  22                                                  1.2074924011263
3   4   18  24                                                  1.18592494204336
3   4   22  24                                                  1.29174301211919
3   9   10  15                                                  1.1510739343156
3   9   10  18                                                  1.43576972060809
3   9   10  22                                                  1.59531627810815
3   9   10  24                                                  1.46292547643237
3   9   15  18                                                  1.11565643946262
3   9   15  22                                                  1.19069895661656
3   9   15  24                                                  1.23482541587078
3   9   18  22                                                  1.57808849677201
3   9   18  24                                                  1.42329019675548
3   9   22  24                                                  1.55574050845814
3   10  15  18                                                  1.10548748012902
3   10  15  22                                                  1.25220481825565
3   10  15  24                                                  1.21727874665353
3   10  18  22                                                  2.04445533396487
3   10  18  24                                                  1.5510202359136
3   10  22  24                                                  1.90995767332815
3   15  18  22                                                  1.22331955069582
3   15  18  24                                                  1.17716241914033
3   15  22  24                                                  1.28590595242201
3   18  22  24                                                  1.89667725218257
4   9   10  15                                                  1.08677747446198
4   9   10  18                                                  1.20938325272045
4   9   10  22                                                  1.32142578229915
4   9   10  24                                                  1.31082697803853
4   9   15  18                                                  1.08725484861639
4   9   15  22                                                  1.13038114200261
4   9   15  24                                                  1.06394817271655
4   9   18  22                                                  1.27829857715533
4   9   18  24                                                  1.28785789698188
4   9   22  24                                                  1.43045809206002
4   10  15  18                                                  0.972396561810002
4   10  15  22                                                  1.04659425913821
4   10  15  24                                                  1.11207413722524
4   10  18  22                                                  1.45980339345713
4   10  18  24                                                  1.2630375855878
4   10  22  24                                                  1.44288219046064
4   15  18  22                                                  1.03093162264401
4   15  18  24                                                  1.10517103242202
4   15  22  24                                                  1.19789895757853
4   18  22  24                                                  1.45362047074271
9   10  15  18                                                  1.21041810503658
9   10  15  22                                                  1.32676745122576
9   10  15  24                                                  1.31183915189106
9   10  18  22                                                  1.94070919651463
9   10  18  24                                                  1.56716104795771
9   10  22  24                                                  1.82579465974187
9   15  18  22                                                  1.29828002526195
9   15  18  24                                                  1.29065289842414
9   15  22  24                                                  1.40168504899744
9   18  22  24                                                  1.85814127831166
10  15  18  22                                                  1.4920200152901
10  15  18  24                                                  1.28030232000173
10  15  22  24                                                  1.46267120924764
10  18  22  24                                                  2.33150210588446
15  18  22  24                                                  1.4737787431732
