VFP FP         Even Proportional_MissRatio Proportional_MissRate
0.00082997          0.00085510          0.00088355          0.00087878      0.00082649
0.00769732          0.00758437          0.00771765          0.00670891      0.00682091
0.00519236          0.01067739          0.00560808          0.00459655      0.00470246
0.00018604          0.00021521          0.00018655          0.00012264      0.00012264
0.00286319          0.00040391          0.00426726          0.00017905      0.00068640
0.00055825          0.00100435          0.00152765          0.00060757      0.00078898
0.00030590          0.00088246          0.00009068          0.00113340      0.00104986
0.00081570          0.00086174          0.00085514          0.00051877      0.00037363
0.00069081          0.00236207          0.00002136          0.00343314      0.00340574
0.00144873          0.00259333          0.00109833          0.00241180      0.00249689
0.00031445          0.00035018          0.00033350          0.00034759      0.00034592
0.00053188          0.00057526          0.00059379          0.00028925      0.00041806
0.00725818          0.00902031          0.00014994          0.00884098      0.00897015
0.00015931          0.00018848          0.00015980          0.00463259      0.00435132
0.00068957          0.00074224          0.00074355          0.00036078      0.00053146
0.00051765          0.00055486          0.00054892          0.00030735      0.00048196
0.00057222          0.00062322          0.00065245          0.00019830      0.00043272
0.00156277          0.00148707          0.00255451          0.00104652      0.00125882
0.00106566          0.00078266          0.00039517          0.00142534      0.00108557
0.00037247          0.00039645          0.00038305          0.00014341      0.00038324
0.00083030          0.00086237          0.00084357          0.00081227      0.00084714
0.00084293          0.00051783          0.01264992          0.00096876      0.00073968
0.00334727          0.00328705          0.00293551          0.00358135      0.00364345
0.00380274          0.00370358          0.00362305          0.00325579      0.00326477
0.00103520          0.00067984          0.00062559          0.00061027      0.00064779
0.00203148          0.00202055          0.00204466          0.00181000      0.00192000
0.00408471          0.00390803          0.00398146          0.00337673      0.00341705
0.00720280          0.00721220          0.00733924          0.00008906      0.00159276
0.00474908          0.01069961          0.00528779          0.00388299      0.00242101
0.00004303          0.00004248          0.00002051          0.00003905      0.00002442
0.00300269          0.00260289          0.00515865          0.01503660      0.00800592
0.00030251          0.00017749          0.00096199          0.00996091      0.00798169
0.00155192          0.00168626          0.00097835          0.00704881      0.00578842
0.00021171          0.00021008          0.00020545          0.00013557      0.00020223
0.00046074          0.00326151          0.00092157          0.00642481      0.00619480
0.00113645          0.00116235          0.00040663          0.00609055      0.00483189
0.00007136          0.00006759          0.00006092          0.00006922      0.00006726
0.00017596          0.00017472          0.00017318          0.00034514      0.00021837
0.00772366          0.00855082          0.00041666          0.00004743      0.00249951
0.00004334          0.00004197          0.00002079          0.00293160      0.00068036
0.00045027          0.00045155          0.00043782          0.00019187      0.00001234
0.00014589          0.00014589          0.00015133          0.00002199      0.00011721
0.00009623          0.00010489          0.00009434          0.00065532      0.00037812
0.00115861          0.00069871          0.00207333          0.00950183      0.00662822
0.00200289          0.00280129          0.00093305          0.01424926      0.01148973
0.00005599          0.00005598          0.00004001          0.00011070      0.00003744
0.00040971          0.00040906          0.00040642          0.00030671      0.00034109
0.00066803          0.00153113          0.01356570          0.01154740      0.00871847
0.00247218          0.00241880          0.00237557          0.00509676      0.00269774
0.00295768          0.00300454          0.00295684          0.00065416      0.00001390
0.00015690          0.00006635          0.00003864          0.00439392      0.00382401
0.00117664          0.00117764          0.00116707          0.00071214      0.00082060
0.00321699          0.00318807          0.00328765          0.00138458      0.00046908
0.01445333          0.03000762          0.01506875          0.01486270      0.01480645
0.00644082          0.00649111          0.00619836          0.11280597      0.04211399
0.00846092          0.00928172          0.00643243          0.00758074      0.00730706
0.00851196          0.00800426          0.00942089          0.00889897      0.00883638
0.00668963          0.00644463          0.00717090          0.00723368      0.00723288
0.00806229          0.00813881          0.00829258          0.00203989      0.00117716
0.00795800          0.01177808          0.00713155          0.00679577      0.00688052
0.00948631          0.00968841          0.00879990          0.00928755      0.00938806
0.00797950          0.00802048          0.00774773          0.00752675      0.00773534
0.00818215          0.00825313          0.00810162          0.00761502      0.00776997
0.02132195          0.02357125          0.01186924          0.01434305      0.01351671
0.00661397          0.00666464          0.00637007          0.08724499      0.08724499
0.00861121          0.00852279          0.00853074          0.00827553      0.00829716
0.00579412          0.00580485          0.00573353          0.00104108      0.00193574
0.00880137          0.00891798          0.00867897          0.00896568      0.00896688
0.01075120          0.01010940          0.01195177          0.01129163      0.01144118
0.00642377          0.00565307          0.00794508          0.00657820      0.00669309
0.00591450          0.00592993          0.00576497          0.00261371      0.00314368
0.00828120          0.00828580          0.00820382          0.00235975      0.00330395
0.00985453          0.00908133          0.00826786          0.01046644      0.01068208
0.01485962          0.01481482          0.01477660          0.01500288      0.01491524
0.01327053          0.01337486          0.01324518          0.01130724      0.01211871
0.00830835          0.00814937          0.00802317          0.00724357      0.00752351
0.01286886          0.01289621          0.01293009          0.01233242      0.01200386
0.01396961          0.01399254          0.01396011          0.01354985      0.01362538
0.00901099          0.00901099          0.00416511          0.10922301      0.10922301
0.00311812          0.00258762          0.00199378          0.00208978      0.00141203
0.00514774          0.04345442          0.00519738          0.00515283      0.00515660
0.00395599          0.00397289          0.00386507          0.00406442      0.00404963
0.01147903          0.01147903          0.00551917          0.00581005      0.00547157
0.01459811          0.01460657          0.00454718          0.00422148      0.00424871
0.00387053          0.02894426          0.00358409          0.00355898      0.00358409
0.00532653          0.01087917          0.00503154          0.00222749      0.00386170
0.00546158          0.01156500          0.00526580          0.00443416      0.00454632
0.00758463          0.03093580          0.00710058          0.00685629      0.00607955
0.00892047          0.00892047          0.00410177          0.08569684      0.08569684
0.00558224          0.01180851          0.00563153          0.00522128      0.00526124
0.00374930          0.00786620          0.00390268          0.00122654      0.00043207
0.00591258          0.01252027          0.00560785          0.00593438      0.00593473
0.00681972          0.00675772          0.00691987          0.00682330      0.00693091
0.00218025          0.04074866          0.00238925          0.00151175      0.00221341
0.00402923          0.00804907          0.00384195          0.00048577      0.00089705
0.00556287          0.01102800          0.00560834          0.00188900      0.00089101
0.00352003          0.04263089          0.01264811          0.00422902      0.00433309
0.00890954          0.02639929          0.00908981          0.00892525      0.00870533
0.00959321          0.01824967          0.01036493          0.00552020      0.00592858
0.00446262          0.01856224          0.00496086          0.00411751      0.00413846
0.00779445          0.01433344          0.00808822          0.01558716      0.01548458
0.00948909          0.02469641          0.01004620          0.00875434      0.00871251
0.00228584          0.00057834          0.00686851          0.14904419      0.14904419
0.00060294          0.00073474          0.00024511          0.11667825      0.11667825
0.00124139          0.00123366          0.00137806          0.05800286      0.03351498
0.00002273          0.00002273          0.00002341          0.00000909      0.00002162
0.00373959          0.00373959          0.00133240          0.01706163      0.01291042
0.00130206          0.00193556          0.00056965          0.11000537      0.11000537
0.00002029          0.00002791          0.00000268          0.00002460      0.00002783
0.00014376          0.00016628          0.00006379          0.00044487      0.00011045
0.00779550          0.00805230          0.00188678          0.11728505      0.06171628
0.00000637          0.00000637          0.00000637          0.00000637      0.00000637
0.00029879          0.00030658          0.00027789          0.00045791      0.00000506
0.00005618          0.00005892          0.00003774          0.00005895      0.00005600
0.00003066          0.00003838          0.00000245          0.00099343      0.00028663
0.00111787          0.00105427          0.00106484          0.12337504      0.12337504
0.00206248          0.00216618          0.00206580          0.12588078      0.12588078
0.00000552          0.00001775          0.00000085          0.00001756      0.00001774
0.00021749          0.00021722          0.00020648          0.00008544      0.00011993
0.00126974          0.00137424          0.01398003          0.12540322      0.12540322
0.00250730          0.00330023          0.00127590          0.12401980      0.05811944
0.00237791          0.00258128          0.00186676          0.02754622      0.01552583
0.00039315          0.00056261          0.00048729          0.05034373      0.03682030
0.00050162          0.00051471          0.00033581          0.00015654      0.00018674
0.00262489          0.00271984          0.00221065          0.04044168      0.02306332
0.00362783          0.00441853          0.00405771          0.00345906      0.00551580
0.00881663          0.00919963          0.01101351          0.00599859      0.00927213
0.00320607          0.00082177          0.00793631          0.01829887      0.01457324
0.00700915          0.00458595          0.00910676          0.00189614      0.00458771
0.00516143          0.00596333          0.00588735          0.00946231      0.00602496
0.00163671          0.00047429          0.00709729          0.02275005      0.00017294
0.00319624          0.00118874          0.00824329          0.00282259      0.00152924
0.00170881          0.00299561          0.00283053          0.00643793      0.00302001
0.00250906          0.00071406          0.00709353          0.11800335      0.11800335
0.00240233          0.00000017          0.00712999          0.00052892      0.00008081
0.00123522          0.00171122          0.00339221          0.02244729      0.00401765
0.00293055          0.00012735          0.00872615          0.00029864      0.00008594
0.00341269          0.00418369          0.00411426          0.00318441      0.00482196
0.00971179          0.01073859          0.00970165          0.00950473      0.01214405
0.00176163          0.00284333          0.00507986          0.00626707      0.00378314
0.00178020          0.00188610          0.00592479          0.01457362      0.00681362
0.00213612          0.00364792          0.03051010          0.04081160      0.00237071
0.00113391          0.00218751          0.00270542          0.00254081      0.00236924
0.00117106          0.00078614          0.00070503          0.00269302      0.00135389
0.00563928          0.00617838          0.00610129          0.00327994      0.00627203
0.00381809          0.00285629          0.00273523          0.02523793      0.02350863
0.00327838          0.00256278          0.00201988          0.00197154      0.00241829
0.00125721          0.00121341          0.00143951          0.00121465      0.00124833
0.00069938          0.00088178          0.00070562          0.01157336      0.01107172
0.00110372          0.02861645          0.00097435          0.00107744      0.00107846
0.00036563          0.00035263          0.00032453          0.00310718      0.00299706
0.00066539          0.00076669          0.00027137          0.00957491      0.00412696
0.00073390          0.00050370          0.00046131          0.00048796      0.00025337
0.00018333          0.00017833          0.00082827          0.00052133      0.00153432
0.00057609          0.00075809          0.00022041          0.09232688      0.09232688
0.00073674          0.00079114          0.00071887          0.00043939      0.00050751
0.00023244          0.00047346          0.00046391          0.00498885      0.00413200
0.00068356          0.00091786          0.00028195          0.00091371      0.00091300
0.00144302          0.00143992          0.00142109          0.00144686      0.00150782
0.00162807          0.00163737          0.00160939          0.00167319      0.00163734
0.00062968          0.00068102          0.00046422          0.00350354      0.00243790
0.00084631          0.00013871          0.00087226          0.00845282      0.00658548
0.00032085          0.00037575          0.01883429          0.02025516      0.02578380
0.00327371          0.00303801          0.00379577          0.00329208      0.00297535
0.00399160          0.00283330          0.00555391          0.00053774      0.00001158
0.00066517          0.00069217          0.00016229          0.00083075      0.00078106
0.00274346          0.00269346          0.00386401          0.02049895      0.02021487
0.00450636          0.00396966          0.00542480          0.00316377      0.00331251
0.00147687          0.00146970          0.00121376          0.01034389      0.00965924
0.00314641          0.00321091          0.00299183          0.00336277      0.00323871
0.00206552          0.00162262          0.00289052          0.00157592      0.00130526
0.00145182          0.00150376          0.00158217          0.00171175      0.00164046
0.00141415          0.00147461          0.00144970          0.00186510      0.00155674
0.00137846          0.00160444          0.00358808          0.00496884      0.00265116
0.00123516          0.00121726          0.00137127          0.09541334      0.09541334
0.00145166          0.00157005          0.00123169          0.00160323      0.00159118
0.00101460          0.00110354          0.00084290          0.00523652      0.00448783
0.00163560          0.00162327          0.00176522          0.00162273      0.00162160
0.00074562          0.00075082          0.00070040          0.00082726      0.00079471
0.00370415          0.00378045          0.00360892          0.00400333      0.00395780
0.00099284          0.00100800          0.00106219          0.00421418      0.00359211
0.00104099          0.00117539          0.00087522          0.00592536      0.00449485
0.00345379          0.00355609          0.02168690          0.00356413      0.00353533
0.00028926          0.00020876          0.00037448          0.00035551      0.00020090
0.00118539          0.00122209          0.00172045          0.00108208      0.00138756
0.00190317          0.00186107          0.00209922          0.00215656      0.00176165
0.00029571          0.00026508          0.00002243          0.02444162      0.02427374
0.00183909          0.00181699          0.00227940          0.00214253      0.00219681
0.00397710          0.00397710          0.00112143          0.00987884      0.01013503
0.00143974          0.00227974          0.00027877          0.00861537      0.00837679
0.00007310          0.00007864          0.00006602          0.00029398      0.00029458
0.00021016          0.00020968          0.00020454          0.00127723      0.00129181
0.00973680          0.01016709          0.00153077          0.00221329      0.00104536
0.00000429          0.00000429          0.00003650          0.00000429      0.00000429
0.00043677          0.00043564          0.00043979          0.00141446      0.00128853
0.00012871          0.00012927          0.00013018          0.00011212      0.00012099
0.00018322          0.00018335          0.00019194          0.00212917      0.00163407
0.00139194          0.00135944          0.00178289          0.01196978      0.01086460
0.00238462          0.00251632          0.00193018          0.01682917      0.01585552
0.00004354          0.00004134          0.00003595          0.00021818      0.00023167
0.00037542          0.00037544          0.00036035          0.00008759      0.00016006
0.00113780          0.00127100          0.01637579          0.01467658      0.01365502
0.00308966          0.00383248          0.00217330          0.00764758      0.00637298
0.00291949          0.00309991          0.00284802          0.00327845      0.00318105
0.00042443          0.00059500          0.00017586          0.00717005      0.00713364
0.00103952          0.00104573          0.00098406          0.00052263      0.00061297
0.00331114          0.00340212          0.00334195          0.00413833      0.00368544
0.00033734          0.01559468          0.00133123          0.00104349      0.00091346
0.00025802          0.00417062          0.00140175          0.00439261      0.00440137
0.00034224          0.00385003          0.00134939          0.00437601      0.00438764
0.00379058          0.01121947          0.00271766          0.00940757      0.00934712
0.00370525          0.00370525          0.00131113          0.04897310      0.04502948
0.00026649          0.00388065          0.00109781          0.00442004      0.00443900
0.00015953          0.00267010          0.00076300          0.00621086      0.00601974
0.00045510          0.00420686          0.00160362          0.00476943      0.00477639
0.00001638          0.00016342          0.00043307          0.00031793      0.00023789
0.00249645          0.02744562          0.00195662          0.00286024      0.00278877
0.00021208          0.00300367          0.00101417          0.00546309      0.00521568
0.00204144          0.00348125          0.00084181          0.00505664      0.00499411
0.00251834          0.00274984          0.01937307          0.00283763      0.00274680
0.00096520          0.00712490          0.00070151          0.00172245      0.00141959
0.00273883          0.00061909          0.00206020          0.00224732      0.00221033
0.00106890          0.00910591          0.00152434          0.00103626      0.00103764
0.00107871          0.00227802          0.00037122          0.02417089      0.02497864
0.00332660          0.00117984          0.00255669          0.00253210      0.00255437
0.00159821          0.00229161          0.00055551          0.00012061      0.00095407
0.00152771          0.00220471          0.00044395          0.00147221      0.00154300
0.00101749          0.00093939          0.00124382          0.00118032      0.00065586
0.00156567          0.00223187          0.00027246          0.08724448      0.08724448
0.00180630          0.00256140          0.00005748          0.00239866      0.00240862
0.00103210          0.00070060          0.00014726          0.00311427      0.00233654
0.00171807          0.00270667          0.00050277          0.00271380      0.00271115
0.00101738          0.00102478          0.00094077          0.00182218      0.00097881
0.00351771          0.00352151          0.00341065          0.00703887      0.00663811
0.00125930          0.00036320          0.00019110          0.00149617      0.00116905
0.00197568          0.00181448          0.00040976          0.00393733      0.00354295
0.00309867          0.00332397          0.01730594          0.00310938      0.00023057
0.00280866          0.00283656          0.00257939          0.00266388      0.00281302
0.00447917          0.00387557          0.00470762          0.00236561      0.00250920
0.00066582          0.00048392          0.00042632          0.00026309      0.00034138
0.00423674          0.00419574          0.00422076          0.01607720      0.01600945
0.00537641          0.00539101          0.00497787          0.00540926      0.00537131
0.00017220          0.00018369          0.00013385          0.00019377      0.00019463
0.00954685          0.00977104          0.00215385          0.00744447      0.00925668
0.00002125          0.00002948          0.00000393          0.00000388      0.00001062
0.00036945          0.00037056          0.00037029          0.00035465      0.00035757
0.00009512          0.00009613          0.00009369          0.00008336      0.00009686
0.00006132          0.00006297          0.00006000          0.00004328      0.00005356
0.00127479          0.00113549          0.00124445          0.00720941      0.00027543
0.00192793          0.00211633          0.00189830          0.01912068      0.00950931
0.00002873          0.00002717          0.00002873          0.00003341      0.00002954
0.00027843          0.00027818          0.00027669          0.00026669      0.00026609
0.00120669          0.00139629          0.01646744          0.01158401      0.00349441
0.00313162          0.00395698          0.00168944          0.00301253      0.00377866
0.00281556          0.00299643          0.00228471          0.00296522      0.00297711
0.00046358          0.00060783          0.00051593          0.00046295      0.00047537
0.00065268          0.00066911          0.00053517          0.00069321      0.00069339
0.00309603          0.00316267          0.00267237          0.00302918      0.00306744
0.00976125          0.01010247          0.00185799          0.00922990      0.00951494
0.00015066          0.00017273          0.00007109          0.03074189      0.02540461
0.00047629          0.00047657          0.00046306          0.00045840      0.00046114
0.00016571          0.00016647          0.00017078          0.00186683      0.00028809
0.00017018          0.00017296          0.00017257          0.00016071      0.00017121
0.00161423          0.00141363          0.00169373          0.00012886      0.00053487
0.00154257          0.00210747          0.00139842          0.00355172      0.00303776
0.00013890          0.00013650          0.00010422          0.00163441      0.00102969
0.00041870          0.00042192          0.00040809          0.00040938      0.00042700
0.00111598          0.00168688          0.01674965          0.00270294      0.00229149
0.00309806          0.00362638          0.00188753          0.00322342      0.00341929
0.00294834          0.00309337          0.00258867          0.00317149      0.00317242
0.00046070          0.00054575          0.00039662          0.00027839      0.00028214
0.00079541          0.00081324          0.00076460          0.00077594      0.00078307
0.00329015          0.00334583          0.00302601          0.00332960      0.00335993
0.00788865          0.00817737          0.00179374          0.09082434      0.09082434
0.01001449          0.01035343          0.00153942          0.01020942      0.01034174
0.00638388          0.00642561          0.00041897          0.00159053      0.00282385
0.01028367          0.01083246          0.00237414          0.01089828      0.01088298
0.00342485          0.00342505          0.00378946          0.00266359      0.00264994
0.00268412          0.00272992          0.00167096          0.00495100      0.00546681
0.00719194          0.00661883          0.00076372          0.00380384      0.00418861
0.00990580          0.00981862          0.00035729          0.00274702      0.00427725
0.00458174          0.00394144          0.01532151          0.00501921      0.00488540
0.00744580          0.00803380          0.00626444          0.00684057      0.00688451
0.01187226          0.01324426          0.00634828          0.01399107      0.01442913
0.00024200          0.00141470          0.00022403          0.00613218      0.00134622
0.01224769          0.01222409          0.00872003          0.00654624      0.00613376
0.01396530          0.01566010          0.00712204          0.01661150      0.01458804
0.00029089          0.00029923          0.00027014          0.03198361      0.02672200
0.00005584          0.00005917          0.00003760          0.00004411      0.00003291
0.00003180          0.00003844          0.00000397          0.03441818      0.02827839
0.00122233          0.00119973          0.00116983          0.09763542      0.09763542
0.00117011          0.00121821          0.00117335          0.10030622      0.10030622
0.00000448          0.00001700          0.00000186          0.00003420      0.00002938
0.00020320          0.00020325          0.00019234          0.01162477      0.00421343
0.00085982          0.00090912          0.01343394          0.09941830      0.09941830
0.00252363          0.00338501          0.00127074          0.09639069      0.09639069
0.00237300          0.00257931          0.00186089          0.08567738      0.04596141
0.00037847          0.00056525          0.00049575          0.08517526      0.08517526
0.00048039          0.00049398          0.00031682          0.03051943      0.02655413
0.00269278          0.00278806          0.00228029          0.08675323      0.05009887
0.00031930          0.00032121          0.00032998          0.00200923      0.00024740
0.00042411          0.00042390          0.00042388          0.00042329      0.00042392
0.00127295          0.00108175          0.00163148          0.00069035      0.00084622
0.00213748          0.00238518          0.00171164          0.00312096      0.00275220
0.00027906          0.00027893          0.00027388          0.00159065      0.00099153
0.00062786          0.00062915          0.00062705          0.00057837      0.00061892
0.00126138          0.00151128          0.01695251          0.00188957      0.00174823
0.00319185          0.00378606          0.00224166          0.00398100      0.00401957
0.00316876          0.00319770          0.00288949          0.00321350      0.00321350
0.00050998          0.00056768          0.00013290          0.00058447      0.00058613
0.00112360          0.00113570          0.00105103          0.00103483      0.00106133
0.00357244          0.00350038          0.00339514          0.00346231      0.00346583
0.00009312          0.00009966          0.00011794          0.00252391      0.00047579
0.00105337          0.00054217          0.00145696          0.00450082      0.00345364
0.00141055          0.00244805          0.00087304          0.02115455      0.00628368
0.00006815          0.00006818          0.00006635          0.00007233      0.00007304
0.00033479          0.00033479          0.00032984          0.00011476      0.00024544
0.00025757          0.00136307          0.00973656          0.00593141      0.00476690
0.00225796          0.00218640          0.00179228          0.00209479      0.00095976
0.00236299          0.00241978          0.00213893          0.00100874      0.00070524
0.00032478          0.00025885          0.00004022          0.00330879      0.00277785
0.00086101          0.00086112          0.00081291          0.00124005      0.00030308
0.00254956          0.00254833          0.00239454          0.00125947      0.00075436
0.00201304          0.00196054          0.00199051          0.00193667      0.00194864
0.00102031          0.00110821          0.00097611          0.00114088      0.00112723
0.00003987          0.00004326          0.00003241          0.00194669      0.00127322
0.00033191          0.00034456          0.00036138          0.00027674      0.00035490
0.00152012          0.00160982          0.01882182          0.00162137      0.00160956
0.00295573          0.00390234          0.00154521          0.00411824      0.00403677
0.00310435          0.00331233          0.00267568          0.00343745      0.00345041
0.00045563          0.00066408          0.00055051          0.00067180      0.00067307
0.00076223          0.00079661          0.00072823          0.00066589      0.00073912
0.00342037          0.00353786          0.00309010          0.00364674      0.00364668
0.00095012          0.00094972          0.00094619          0.00095809      0.00095937
0.00113974          0.00007006          0.00115315          0.00314367      0.00227240
0.00200877          0.00137097          0.00235526          0.00749200      0.00514026
0.00350462          0.00350212          0.01402586          0.00351470      0.00351337
0.00419443          0.00401423          0.00477833          0.00414973      0.00412566
0.00570843          0.00482783          0.00730973          0.00090916      0.00246752
0.00048155          0.00033455          0.00138665          0.00009046      0.00025558
0.00649541          0.00651401          0.00727621          0.01886354      0.01853563
0.00679626          0.00638126          0.00790940          0.00546462      0.00625165
0.00132353          0.00292823          0.00115964          0.00664435      0.00478125
0.00138728          0.00242698          0.00095267          0.01333702      0.00992766
0.00346540          0.00346590          0.02437436          0.03228443      0.03229444
0.00078763          0.00125053          0.00016305          0.00120211      0.00141151
0.00127594          0.00031056          0.00353233          0.00476815      0.00369824
0.00265844          0.00279214          0.00152646          0.00311736      0.00295479
0.00129114          0.00149334          0.00060865          0.02754072      0.02674656
0.00153247          0.00075017          0.00302529          0.00138933      0.00029086
0.00023090          0.00023089          0.00023166          0.00075175      0.00021628
0.00024944          0.00188594          0.01100359          0.00459230      0.00356085
0.00239888          0.00220637          0.00147585          0.00039155      0.00009506
0.00236813          0.00243230          0.00200620          0.00003219      0.00027343
0.00045680          0.00038829          0.00021845          0.00231325      0.00182618
0.00065650          0.00065756          0.00056467          0.00111010      0.00059845
0.00250066          0.00250377          0.00221499          0.00023563      0.00014659
0.00005916          0.00102384          0.01375265          0.00990763      0.00720193
0.00363512          0.00357957          0.00274313          0.00269163      0.00098179
0.00354643          0.00362521          0.00324538          0.00085474      0.00134054
0.00080666          0.00072037          0.00018901          0.00332148      0.00301353
0.00152106          0.00152148          0.00142743          0.00150726      0.00152146
0.00368660          0.00368121          0.00348200          0.00002783      0.00075817
0.00334137          0.00262297          0.01763165          0.00376337      0.00369371
0.00412676          0.00198926          0.01197809          0.00031394      0.00103655
0.00153240          0.00170570          0.01612480          0.00181004      0.00163082
0.01116679          0.00995489          0.00379055          0.01109975      0.01075397
0.00877288          0.00772258          0.00827306          0.00755016      0.00831038
0.00837805          0.00824515          0.00854524          0.00536727      0.00731439
0.00180973          0.00161783          0.00177975          0.00126513      0.00119805
0.00852289          0.00852669          0.00840110          0.01703846      0.01657180
0.00902856          0.00898426          0.00897117          0.00880133      0.00901062
0.00329810          0.00328875          0.00320664          0.00330568      0.00326020
0.00731199          0.00737989          0.00726836          0.01506169      0.01502276
0.00819751          0.00825688          0.00823511          0.00809602      0.00815549
0.00226425          0.00227639          0.00196089          0.01877164      0.01874769
0.00385282          0.00382806          0.00361610          0.00385435      0.00396450
0.01025879          0.01026119          0.01026187          0.01371388      0.01360144
