ID1	ID2	ID3	ID4					VFP			FP		Even
3	4	10	18					0.000010			0.001213		0.000428
4	9	10	15					0.000029			0.007075		0.001766
1	4	10	18					0.000030			0.000096		0.001270
1	3	10	18					0.000038			0.000673		0.000045
3	10	15	18					0.000040			0.001295		0.000290
1	4	9	15					0.000043			0.001613		0.000470
1	9	10	15					0.000053			0.011004		0.001566
1	4	9	10					0.000069			0.009701		0.001583
4	10	15	18					0.000070			0.000351		0.001519
1	4	9	18					0.000085			0.000145		0.000208
1	10	15	18					0.000107			0.000136		0.001195
4	9	15	18					0.000145			0.000007		0.000146
1	9	15	18					0.000173			0.000145		0.000454
9	10	22	24					0.000196			0.000288		0.008855
1	4	15	22					0.000200			0.000553		0.008549
9	10	18	24					0.000232			0.000335		0.000143
4	10	22	24					0.000246			0.000793		0.007976
9	10	15	18					0.000260			0.000109		0.001787
4	9	10	18					0.000264			0.000049		0.001772
1	9	10	18					0.000265			0.000563		0.001496
1	9	15	22					0.000274			0.000758		0.009223
1	4	9	22					0.000326			0.000703		0.008487
3	9	10	18					0.000334			0.000903		0.000632
1	4	15	18					0.000366			0.000151		0.000550
10	15	22	24					0.000395			0.000865		0.008793
4	9	15	22					0.000434			0.000633		0.009270
1	4	10	15					0.000461			0.001054		0.001382
1	10	22	24					0.000573			0.000625		0.007744
4	9	18	22					0.000660			0.000499		0.008448
4	15	18	22					0.000771			0.000566		0.008573
9	15	18	22					0.000878			0.000601		0.009313
1	4	18	22					0.000889			0.000319		0.007659
1	4	10	22					0.000973			0.000356		0.009233
1	10	15	22					0.001000			0.000439		0.010106
4	9	10	24					0.001068			0.009596		0.000206
3	10	18	24					0.001079			0.001618		0.001862
1	4	9	24					0.001081			0.003734		0.000809
3	4	9	22					0.001090			0.015145		0.007718
3	4	9	10					0.001112			0.014031		0.000558
1	9	18	22					0.001118			0.000379		0.007991
4	10	18	24					0.001121			0.000904		0.000234
1	15	18	22					0.001122			0.000371		0.008375
1	9	10	24					0.001136			0.013891		0.000173
4	10	15	22					0.001153			0.000018		0.010144
1	3	9	10					0.001160			0.018214		0.000233
1	9	10	22					0.001192			0.000642		0.010085
1	10	18	24					0.001197			0.000186		0.000674
1	9	15	24					0.001242			0.004431		0.001123
9	10	15	24					0.001251			0.014515		0.000005
4	9	10	22					0.001254			0.000092		0.009900
3	9	10	15					0.001302			0.016013		0.000400
1	3	4	22					0.001323			0.001096		0.006966
1	4	15	24					0.001325			0.001503		0.000904
3	4	15	22					0.001325			0.014270		0.007720
3	9	15	22					0.001332			0.020918		0.008466
1	3	9	22					0.001337			0.020049		0.007606
10	15	18	24					0.001346			0.000944		0.000536
9	10	15	22					0.001395			0.000214		0.011138
4	9	22	24					0.001400			0.001115		0.006842
1	3	4	10					0.001418			0.012676		0.000092
1	4	10	24					0.001433			0.001988		0.000182
4	9	18	24					0.001481			0.001411		0.001770
1	3	18	22					0.001520			0.002041		0.006534
4	9	15	24					0.001521			0.000489		0.000733
3	4	10	15					0.001540			0.013078		0.000247
1	3	15	22					0.001561			0.000957		0.007601
1	9	22	24					0.001567			0.000688		0.006965
4	15	22	24					0.001590			0.001368		0.007160
4	10	15	24					0.001608			0.002507		0.000057
1	3	4	9					0.001608			0.005930		0.001432
9	15	22	24					0.001610			0.001171		0.007749
1	4	22	24					0.001611			0.001046		0.006406
1	9	18	24					0.001614			0.001192		0.002255
1	3	10	15					0.001616			0.014390		0.000099
1	10	15	24					0.001621			0.002097		0.000415
1	4	18	24					0.001725			0.001510		0.002115
3	4	9	15					0.001738			0.006329		0.001437
9	15	18	24					0.001743			0.001590		0.002240
3	4	9	18					0.001824			0.001764		0.001463
1	3	9	15					0.001827			0.010070		0.001785
4	15	18	24					0.001839			0.001807		0.002094
1	15	22	24					0.001887			0.001138		0.006931
1	3	9	18					0.001951			0.001542		0.001898
1	3	4	15					0.001962			0.005127		0.001811
1	15	18	24					0.001979			0.001649		0.002581
1	3	4	18					0.002031			0.001763		0.001866
3	9	15	18					0.002122			0.001995		0.001872
3	9	10	24					0.002181			0.019122		0.001487
3	4	15	18					0.002182			0.002123		0.001843
3	4	18	22					0.002241			0.002312		0.006880
1	3	15	18					0.002316			0.001950		0.002283
3	4	10	24					0.002596			0.015911		0.001449
4	18	22	24					0.002630			0.001916		0.006042
3	15	18	22					0.002693			0.002659		0.007606
1	3	10	24					0.002728			0.017442		0.001923
3	4	22	24					0.002780			0.017669		0.005644
3	9	22	24					0.002864			0.025277		0.006299
2	3	10	22					0.002874			0.005013		0.005271
9	18	22	24					0.002915			0.002087		0.016637
3	10	15	24					0.002948			0.021373		0.001834
2	3	18	22					0.002965			0.008247		0.038107
2	4	10	22					0.003043			0.004113		0.006115
1	3	22	24					0.003130			0.001878		0.005374
15	18	22	24					0.003197			0.002219		0.006567
3	4	9	24					0.003209			0.008941		0.003102
2	4	9	10					0.003215			0.014455		0.001651
1	18	22	24					0.003221			0.001662		0.013617
3	18	22	24					0.003248			0.003767		0.017489
3	15	22	24					0.003314			0.002608		0.006051
1	2	9	15					0.003328			0.006304		0.003365
1	3	4	24					0.003336			0.007494		0.003277
1	2	4	9					0.003349			0.005404		0.002812
1	2	9	10					0.003393			0.015805		0.002131
1	3	9	24					0.003400			0.013021		0.003616
2	9	10	22					0.003432			0.004538		0.006703
1	2	4	15					0.003443			0.003545		0.003250
3	4	18	24					0.003467			0.003238		0.003619
3	9	18	24					0.003496			0.003041		0.003900
1	2	4	10					0.003503			0.003961		0.001970
2	4	9	15					0.003509			0.005505		0.002890
3	4	15	24					0.003514			0.007606		0.003306
2	4	10	18					0.003569			0.003643		0.002238
1	2	10	22					0.003598			0.003971		0.005715
3	9	15	24					0.003639			0.010069		0.003691
2	4	9	18					0.003645			0.003380		0.003816
2	10	15	22					0.003676			0.004766		0.006618
2	9	10	15					0.003692			0.016609		0.002109
2	9	10	18					0.003716			0.003657		0.002451
1	3	18	24					0.003720			0.002922		0.004264
1	2	4	18					0.003739			0.003367		0.004078
1	3	15	24					0.003793			0.008715		0.003902
2	4	10	15					0.003807			0.004576		0.001947
2	4	9	22					0.003838			0.003499		0.005173
1	2	10	18					0.003890			0.003384		0.002870
1	2	9	18					0.003909			0.003389		0.004410
1	2	10	15					0.003949			0.004398		0.002428
1	2	4	22					0.003952			0.003412		0.004496
2	4	15	18					0.003983			0.003757		0.004209
3	15	18	24					0.003999			0.003627		0.004352
2	4	15	22					0.004020			0.003674		0.005163
2	3	10	18					0.004127			0.005296		0.004154
2	9	15	18					0.004178			0.003819		0.004541
2	10	15	18					0.004186			0.004170		0.002844
1	2	15	18					0.004289			0.003800		0.004828
1	2	9	22					0.004321			0.003608		0.004806
2	9	15	22					0.004467			0.004017		0.005528
1	2	15	22					0.004577			0.003896		0.004773
3	9	18	22					0.004708			0.002532		0.007665
2	10	18	22					0.004748			0.005807		0.041015
2	3	9	10					0.004814			0.024840		0.003557
2	3	4	10					0.004894			0.017857		0.003320
2	4	9	24					0.005051			0.008314		0.004744
2	3	4	9					0.005124			0.013520		0.004971
2	4	10	24					0.005187			0.005846		0.003919
1	2	4	24					0.005206			0.005389		0.004784
1	2	3	10					0.005237			0.019637		0.003972
1	2	3	4					0.005251			0.011778		0.005193
2	4	15	24					0.005361			0.005564		0.004883
2	9	10	24					0.005406			0.020501		0.004428
1	2	3	9					0.005444			0.014801		0.005575
1	2	9	24					0.005487			0.009439		0.005480
1	2	10	24					0.005511			0.005345		0.004617
2	3	4	15					0.005557			0.009427		0.005383
2	3	10	15					0.005571			0.023641		0.003977
2	4	18	22					0.005578			0.005263		0.003927
2	3	4	22					0.005598			0.005589		0.003585
2	4	18	24					0.005713			0.005466		0.006213
2	10	18	24					0.005753			0.004942		0.005305
2	3	9	15					0.005779			0.015479		0.005769
2	9	15	24					0.005781			0.009719		0.005651
1	2	15	24					0.005797			0.005929		0.005568
2	3	4	18					0.005811			0.005588		0.005691
3	4	10	22					0.005920			0.022643		0.008755
1	2	3	15					0.005947			0.005709		0.006041
2	10	15	24					0.005984			0.006537		0.004765
2	3	9	22					0.006149			0.028196		0.003980
1	2	3	22					0.006173			0.005353		0.003172
2	3	9	18					0.006186			0.005860		0.006207
1	2	3	18					0.006193			0.005567		0.006423
2	9	18	24					0.006194			0.005734		0.007016
1	2	18	24					0.006200			0.005538		0.007108
2	9	18	22					0.006319			0.005933		0.004297
2	10	22	24					0.006327			0.005481		0.015061
2	4	22	24					0.006356			0.005858		0.002300
1	2	18	22					0.006385			0.005389		0.003373
1	3	10	22					0.006403			0.000443		0.008843
2	3	15	22					0.006482			0.006084		0.003828
2	15	18	22					0.006536			0.006059		0.004272
3	10	22	24					0.006583			0.000990		0.019064
2	15	18	24					0.006601			0.006232		0.007369
2	3	15	18					0.006665			0.006340		0.006704
2	9	22	24					0.006746			0.005976		0.002854
2	3	10	24					0.006804			0.027876		0.006324
3	10	15	22					0.006820			0.000106		0.009844
4	10	18	22					0.006837			0.000393		0.008506
1	2	22	24					0.006858			0.005686		0.002124
2	15	22	24					0.007251			0.006543		0.002683
2	3	4	24					0.007360			0.012440		0.007377
2	3	9	24					0.007771			0.019195		0.008094
1	10	18	22					0.007774			0.000149		0.008353
3	9	10	22					0.007788			0.030784		0.009904
1	2	3	24					0.007813			0.016851		0.008184
10	18	22	24					0.007977			0.001429		0.021107
10	15	18	22					0.008027			0.000458		0.009466
3	10	18	22					0.008222			0.000595		0.008214
2	3	15	24					0.008398			0.017707		0.008612
2	3	18	24					0.008465			0.007729		0.009214
2	3	22	24					0.008841			0.007782		0.000932
9	10	18	22					0.009722			0.000270		0.009684
2	18	22	24					0.009770			0.008387		0.034691
