Program Actual  VFP HOTL
gcc 0.02052676      0.00961481  0.01842739
soplex  0.03542368      0.00738148  0.02463860
bwaves  0.03831800      0.00670741  0.01329314
xalancbmk   0.01043184      0.00549630  0.00662516
astar   0.00748485      0.00461111  0.00592465
omnetpp 0.02944739      0.00427407  0.00832444
sphinx3 0.00095501      0.00354815  0.00091121
mcf 0.07269476      0.00337407  0.01166077
cactusADM   0.00421594      0.00281852  0.000000832676
libquantum  0.06782742      0.00275926  0.00615429
lbm 0.05168297      0.00269630  0.00318241
GemsFDTD    0.04817446      0.00257037  0.00310485
leslie3d    0.03666972      0.00241481  0.00343532
gromacs 0.00002279      0.00207407  0.00001041
zeusmp  0.01363264      0.00202593  0.00342436
calculix    0.00099935      0.00192222  0.00071417
tonto   0.00046688      0.00188148  0.00046127
perlbench   0.00039685      0.00187407  0.00037635
sjeng   0.00111486      0.00186296  0.00009232
gobmk   0.00091542      0.00175926  0.00034143
wrf 0.01339074      0.00170000  0.00093432
milc    0.05360382      0.00167037  0.00114173
namd    0.00014652      0.00166667  0.00003937
povray  0.00000139      0.00166296  0.00000128
gamess  0.00000431      0.00165185  0.00000418
bzip2   0.00035499      0.00157037  0.00004490
h264ref 0.00007645      0.00127778  0.00000205
hmmer   0.00011017      0.00122222  0.00008667
