# started on Tue May  9 12:13:30 2017


 Performance counter stats for '../run_base_ref_amd64-m64-gcc43-nn.0000/bzip2_base.amd64-m64-gcc43-nn input.source 280' (3 runs):

      126713465172      r5381d0                                                       ( +-  0.14% )  (80.00%)
           1763467      r5320d1                                                       ( +-  8.77% )  (80.00%)
       45136295873      r5382d0                                                       ( +-  0.06% )  (80.00%)
          28827446      cpu/config=0x5301b7,config1=0x3fbc000091/                                     ( +-  1.94% )  (80.00%)
         104349922      cpu/config=0x5301bb,config1=0x3fbc008fff/                                     ( +-  1.89% )  (80.00%)

      64.688570535 seconds time elapsed                                          ( +-  0.06% )

