# started on Tue May  9 15:58:48 2017


 Performance counter stats for '../run_base_ref_amd64-m64-gcc43-nn.0000/GemsFDTD_base.amd64-m64-gcc43-nn' (3 runs):

      476866620427      r5381d0                                                       ( +-  0.01% )  (80.00%)
        2955028740      r5320d1                                                       ( +-  0.04% )  (80.00%)
      129373138720      r5382d0                                                       ( +-  0.02% )  (80.00%)
       64091007732      cpu/config=0x5301b7,config1=0x3fbc000091/                                     ( +-  0.08% )  (80.00%)
       71772468133      cpu/config=0x5301bb,config1=0x3fbc008fff/                                     ( +-  0.15% )  (80.00%)

     551.410961801 seconds time elapsed                                          ( +-  0.01% )

