# started on Tue May  9 20:10:11 2017


 Performance counter stats for '../run_base_ref_amd64-m64-gcc43-nn.0000/milc_base.amd64-m64-gcc43-nn' (3 runs):

      112608641117      r5381d0                                                       ( +-100.00% )
        2505605281      r5320d1                                                       ( +-100.00% )
       30814366842      cpu/config=0x5301b7,config1=0x3fbc008fff/                                     ( +-100.00% )

     119.316461087 seconds time elapsed                                          ( +-100.00% )

