# started on Tue May  9 15:42:40 2017


 Performance counter stats for '../run_base_ref_amd64-m64-gcc43-nn.0000/sjeng_base.amd64-m64-gcc43-nn ref.txt' (3 runs):

      547668422598      r5381d0                                                       ( +-  0.00% )  (80.00%)
         663587008      r5320d1                                                       ( +-  0.02% )  (80.00%)
      199299301524      r5382d0                                                       ( +-  0.00% )  (80.00%)
        2580398299      cpu/config=0x5301b7,config1=0x3fbc000091/                                     ( +-  0.06% )  (80.00%)
        3636090378      cpu/config=0x5301bb,config1=0x3fbc008fff/                                     ( +-  0.14% )  (80.00%)

     322.462076092 seconds time elapsed                                          ( +-  0.03% )

