# started on Tue May  9 17:27:07 2017


 Performance counter stats for '../run_base_ref_amd64-m64-gcc43-nn.0000/wrf_base.amd64-m64-gcc43-nn' (3 runs):

      819306870397      r5381d0                                                       ( +-  0.03% )  (80.00%)
         337425120      r5320d1                                                       ( +-  0.66% )  (80.00%)
      227848684068      r5382d0                                                       ( +-  0.03% )  (80.00%)
       19776257258      cpu/config=0x5301b7,config1=0x3fbc000091/                                     ( +-  0.45% )  (80.00%)
       25547492235      cpu/config=0x5301bb,config1=0x3fbc008fff/                                     ( +-  0.45% )  (80.00%)

     291.180544484 seconds time elapsed                                          ( +-  0.07% )

