# started on Wed Apr 26 05:07:50 2017


 Performance counter stats for 'rdtset -r 4 -c 4 -t cpu=4;l3=0x3ffff ../run_base_ref_amd64-m64-gcc43-nn.0000/astar_base.amd64-m64-gcc43-nn BigLakes2048.cfg' (3 runs):

      122978838777      r5381d0                                                       ( +-  0.01% )  (80.00%)
          41227069      r5320d1                                                       ( +-  4.64% )  (80.00%)
       28017348020      r5382d0                                                       ( +-  0.04% )  (80.00%)
         107116487      cpu/config=0x5301b7,config1=0x3fbc000091/                                     ( +-  3.56% )  (80.00%)
         273935846      cpu/config=0x5301bb,config1=0x3fbc008fff/                                     ( +-  3.13% )  (80.00%)

     110.545221790 seconds time elapsed                                          ( +-  0.28% )

