# started on Mon May  1 14:17:48 2017


 Performance counter stats for 'rdtset -r 4 -c 4 -t cpu=4;l3=0x1f ../run_base_ref_amd64-m64-gcc43-nn.0000/bwaves_base.amd64-m64-gcc43-nn' (3 runs):

      790537321376      r5381d0                                                       ( +-  0.03% )  (80.00%)
         289806154      r5320d1                                                       ( +-  0.40% )  (80.00%)
       66819370184      r5382d0                                                       ( +-  0.02% )  (80.00%)
       23076718157      cpu/config=0x5301b7,config1=0x3fbc000091/                                     ( +-  0.15% )  (80.00%)
       26023048817      cpu/config=0x5301bb,config1=0x3fbc008fff/                                     ( +-  0.20% )  (80.00%)

     311.442378287 seconds time elapsed                                          ( +-  0.08% )

