# started on Mon May  1 20:34:44 2017


 Performance counter stats for 'rdtset -r 4 -c 4 -t cpu=4;l3=0xf ../run_base_ref_amd64-m64-gcc43-nn.0000/bzip2_base.amd64-m64-gcc43-nn input.source 280' (3 runs):

      127919101628      r5381d0                                                       ( +-  0.02% )  (80.00%)
          32639179      r5320d1                                                       ( +-  3.34% )  (79.97%)
       41882691585      r5382d0                                                       ( +-  0.04% )  (80.02%)
          84192854      cpu/config=0x5301b7,config1=0x3fbc000091/                                     ( +-  3.63% )  (80.01%)
         195569087      cpu/config=0x5301bb,config1=0x3fbc008fff/                                     ( +-  3.74% )  (80.00%)

      95.802679887 seconds time elapsed                                          ( +-  0.31% )

