# started on Tue May  2 17:00:31 2017


 Performance counter stats for 'rdtset -r 4 -c 4 -t cpu=4;l3=0x1 ../run_base_ref_amd64-m64-gcc43-nn.0000/bzip2_base.amd64-m64-gcc43-nn input.source 280' (3 runs):

      127928216440      r5381d0                                                       ( +-  0.15% )  (79.97%)
         700959063      r5320d1                                                       ( +-  2.04% )  (80.03%)
       41916565678      r5382d0                                                       ( +-  0.10% )  (80.00%)
        1470549489      cpu/config=0x5301b7,config1=0x3fbc000091/                                     ( +-  2.76% )  (79.99%)
        2370526495      cpu/config=0x5301bb,config1=0x3fbc008fff/                                     ( +-  4.93% )  (80.01%)

     146.847285991 seconds time elapsed                                          ( +-  2.34% )

