# started on Wed Apr 26 18:59:10 2017


 Performance counter stats for 'rdtset -r 4 -c 4 -t cpu=4;l3=0x7fff ../run_base_ref_amd64-m64-gcc43-nn.0000/cactusADM_base.amd64-m64-gcc43-nn benchADM.par' (3 runs):

     1134564369693      r5381d0                                                       ( +-  0.02% )  (80.01%)
        1302042506      r5320d1                                                       ( +-  4.32% )  (80.00%)
      330770852191      r5382d0                                                       ( +-  0.02% )  (80.00%)
        3778744333      cpu/config=0x5301b7,config1=0x3fbc000091/                                     ( +-  1.29% )  (80.00%)
        5999194679      cpu/config=0x5301bb,config1=0x3fbc008fff/                                     ( +-  0.19% )  (79.99%)

     546.911136706 seconds time elapsed                                          ( +-  0.06% )

