# started on Thu Apr 27 01:51:05 2017


 Performance counter stats for 'rdtset -r 4 -c 4 -t cpu=4;l3=0x3fff ../run_base_ref_amd64-m64-gcc43-nn.0000/calculix_base.amd64-m64-gcc43-nn -i hyperviscoplastic' (3 runs):

     1299676902167      r5381d0                                                       ( +-  0.00% )  (79.99%)
          48295133      r5320d1                                                       ( +-  0.07% )  (80.01%)
      120595331761      r5382d0                                                       ( +-  0.03% )  (80.00%)
         459337716      cpu/config=0x5301b7,config1=0x3fbc000091/                                     ( +-  0.29% )  (79.99%)
         643870743      cpu/config=0x5301bb,config1=0x3fbc008fff/                                     ( +-  0.18% )  (80.01%)

     646.155857954 seconds time elapsed                                          ( +-  0.02% )

