# started on Thu Apr 27 07:42:58 2017


 Performance counter stats for 'rdtset -r 4 -c 4 -t cpu=4;l3=0x1fff ../run_base_ref_amd64-m64-gcc43-nn.0000/calculix_base.amd64-m64-gcc43-nn -i hyperviscoplastic' (3 runs):

     1299880315139      r5381d0                                                       ( +-  0.02% )  (80.01%)
          50759341      r5320d1                                                       ( +-  0.64% )  (80.00%)
      120641806061      r5382d0                                                       ( +-  0.05% )  (80.00%)
         501363429      cpu/config=0x5301b7,config1=0x3fbc000091/                                     ( +-  0.06% )  (80.00%)
         694032446      cpu/config=0x5301bb,config1=0x3fbc008fff/                                     ( +-  0.15% )  (80.00%)

     646.006777083 seconds time elapsed                                          ( +-  0.02% )

