# started on Thu Apr 27 19:32:00 2017


 Performance counter stats for 'rdtset -r 4 -c 4 -t cpu=4;l3=0x7ff ../run_base_ref_amd64-m64-gcc43-nn.0000/calculix_base.amd64-m64-gcc43-nn -i hyperviscoplastic' (3 runs):

     1299641537339      r5381d0                                                       ( +-  0.00% )  (80.00%)
          58222252      r5320d1                                                       ( +-  0.13% )  (80.00%)
      120675511618      r5382d0                                                       ( +-  0.01% )  (80.00%)
         620816223      cpu/config=0x5301b7,config1=0x3fbc000091/                                     ( +-  0.10% )  (79.99%)
         834842738      cpu/config=0x5301bb,config1=0x3fbc008fff/                                     ( +-  0.18% )  (80.01%)

     646.632952745 seconds time elapsed                                          ( +-  0.03% )

