# started on Wed May 10 11:31:19 2017


 Performance counter stats for 'rdtset -r 4 -c 4 -t cpu=4;l3=0xfff ../run_base_ref_amd64-m64-gcc43-nn.0000/gamess_base.amd64-m64-gcc43-nn' (3 runs):

       35633485137      r5381d0                                                       ( +-100.00% )
             14393      r5320d1                                                       ( +- 46.79% )
       13177485678      r5382d0                                                       ( +- 99.99% )
             70629      cpu/config=0x5301b7,config1=0x3fbc008fff/                                     ( +- 63.65% )

      13.678478891 seconds time elapsed                                          ( +- 99.94% )

