# started on Wed May 10 11:35:26 2017


 Performance counter stats for 'rdtset -r 4 -c 4 -t cpu=4;l3=0x3f ../run_base_ref_amd64-m64-gcc43-nn.0000/gamess_base.amd64-m64-gcc43-nn' (3 runs):

       35633512589      r5381d0                                                       ( +-100.00% )
             15272      r5320d1                                                       ( +- 53.19% )
       13177506788      r5382d0                                                       ( +- 99.99% )
             82422      cpu/config=0x5301b7,config1=0x3fbc008fff/                                     ( +- 66.54% )

      13.727916986 seconds time elapsed                                          ( +- 99.94% )

