# started on Wed Apr 26 17:52:10 2017


 Performance counter stats for 'rdtset -r 4 -c 4 -t cpu=4;l3=0x7fff ../run_base_ref_amd64-m64-gcc43-nn.0000/gcc_base.amd64-m64-gcc43-nn 166.i -o 166.s' (3 runs):

       17515202801      r5381d0                                                       ( +-  0.05% )  (79.99%)
          30478401      r5320d1                                                       ( +-  0.75% )  (80.00%)
       12155335686      r5382d0                                                       ( +-  0.03% )  (80.01%)
         155892812      cpu/config=0x5301b7,config1=0x3fbc000091/                                     ( +-  1.52% )  (80.01%)
         204446343      cpu/config=0x5301bb,config1=0x3fbc008fff/                                     ( +-  1.13% )  (80.01%)

      17.548355050 seconds time elapsed                                          ( +-  0.56% )

