# started on Tue May  2 03:12:08 2017


 Performance counter stats for 'rdtset -r 4 -c 4 -t cpu=4;l3=0x7 ../run_base_ref_amd64-m64-gcc43-nn.0000/gcc_base.amd64-m64-gcc43-nn 166.i -o 166.s' (3 runs):

       17551704357      r5381d0                                                       ( +-  0.08% )  (80.00%)
         220559764      r5320d1                                                       ( +-  0.42% )  (80.00%)
       12195109497      r5382d0                                                       ( +-  0.06% )  (80.00%)
         775722642      cpu/config=0x5301b7,config1=0x3fbc000091/                                     ( +-  0.14% )  (80.01%)
         969844854      cpu/config=0x5301bb,config1=0x3fbc008fff/                                     ( +-  0.23% )  (80.00%)

      26.876827318 seconds time elapsed                                          ( +-  0.31% )

