# started on Mon May  1 20:39:31 2017


 Performance counter stats for 'rdtset -r 4 -c 4 -t cpu=4;l3=0xf ../run_base_ref_amd64-m64-gcc43-nn.0000/gcc_base.amd64-m64-gcc43-nn 166.i -o 166.s' (3 runs):

       17573646763      r5381d0                                                       ( +-  0.02% )  (80.02%)
         196011484      r5320d1                                                       ( +-  0.37% )  (80.00%)
       12175539542      r5382d0                                                       ( +-  0.06% )  (79.98%)
         715698456      cpu/config=0x5301b7,config1=0x3fbc000091/                                     ( +-  0.16% )  (80.01%)
         886927190      cpu/config=0x5301bb,config1=0x3fbc008fff/                                     ( +-  0.23% )  (79.99%)

      25.507621747 seconds time elapsed                                          ( +-  0.10% )

