# started on Thu Apr 27 14:36:16 2017


 Performance counter stats for 'rdtset -r 4 -c 4 -t cpu=4;l3=0xfff ../run_base_ref_amd64-m64-gcc43-nn.0000/GemsFDTD_base.amd64-m64-gcc43-nn' (3 runs):

      477817486434      r5381d0                                                       ( +-  0.02% )  (80.00%)
        4308772089      r5320d1                                                       ( +-  0.22% )  (80.00%)
      129645864538      r5382d0                                                       ( +-  0.03% )  (80.00%)
       18635147628      cpu/config=0x5301b7,config1=0x3fbc000091/                                     ( +-  0.13% )  (79.99%)
       24592247778      cpu/config=0x5301bb,config1=0x3fbc008fff/                                     ( +-  0.01% )  (80.01%)

     377.403219359 seconds time elapsed                                          ( +-  0.12% )

