# started on Wed Apr 26 03:36:35 2017


 Performance counter stats for 'rdtset -r 4 -c 4 -t cpu=4;l3=0x3ffff ../run_base_ref_amd64-m64-gcc43-nn.0000/GemsFDTD_base.amd64-m64-gcc43-nn' (3 runs):

      477470346366      r5381d0                                                       ( +-  0.02% )  (80.00%)
        4160091966      r5320d1                                                       ( +-  0.56% )  (80.00%)
      129737200921      r5382d0                                                       ( +-  0.02% )  (80.00%)
       18355222758      cpu/config=0x5301b7,config1=0x3fbc000091/                                     ( +-  0.22% )  (80.00%)
       24260614637      cpu/config=0x5301bb,config1=0x3fbc008fff/                                     ( +-  0.14% )  (80.00%)

     373.169466624 seconds time elapsed                                          ( +-  0.32% )

