# started on Wed Apr 26 13:57:40 2017


 Performance counter stats for 'rdtset -r 4 -c 4 -t cpu=4;l3=0xffff ../run_base_ref_amd64-m64-gcc43-nn.0000/gobmk_base.amd64-m64-gcc43-nn --quiet --mode gtp' (3 runs):

       19237136992      r5381d0                                                       ( +- 99.95% )  (80.00%)
           2720278      r5320d1                                                       ( +- 99.62% )  (80.00%)
       10188229836      r5382d0                                                       ( +- 99.95% )  (80.00%)
           4352664      cpu/config=0x5301b7,config1=0x3fbc000091/                                     ( +- 99.65% )  (80.01%)
          18697095      cpu/config=0x5301bb,config1=0x3fbc008fff/                                     ( +- 98.41% )  (80.00%)

      20.339370209 seconds time elapsed                                          ( +- 99.93% )

