# started on Sun Apr 30 15:42:04 2017


 Performance counter stats for 'rdtset -r 4 -c 4 -t cpu=4;l3=0x1ff ../run_base_ref_amd64-m64-gcc43-nn.0000/gobmk_base.amd64-m64-gcc43-nn --quiet --mode gtp' (3 runs):

       19233639810      r5381d0                                                       ( +- 99.95% )  (79.99%)
           5455982      r5320d1                                                       ( +- 99.85% )  (80.00%)
       10178812314      r5382d0                                                       ( +- 99.95% )  (80.01%)
           7955744      cpu/config=0x5301b7,config1=0x3fbc000091/                                     ( +- 99.78% )  (80.00%)
          30161910      cpu/config=0x5301bb,config1=0x3fbc008fff/                                     ( +- 98.61% )  (80.00%)

      20.736641303 seconds time elapsed                                          ( +- 99.91% )

