# started on Sun Apr 30 14:39:20 2017


 Performance counter stats for 'rdtset -r 4 -c 4 -t cpu=4;l3=0x1ff ../run_base_ref_amd64-m64-gcc43-nn.0000/gromacs_base.amd64-m64-gcc43-nn -silent -deffnm gromacs -nice 0' (3 runs):

      502800911874      r5381d0                                                       ( +-  0.01% )  (79.99%)
           5111612      r5320d1                                                       ( +- 13.18% )  (80.00%)
      206348377190      r5382d0                                                       ( +-  0.02% )  (80.01%)
          24411437      cpu/config=0x5301b7,config1=0x3fbc000091/                                     ( +- 10.34% )  (80.00%)
          38392008      cpu/config=0x5301bb,config1=0x3fbc008fff/                                     ( +- 10.06% )  (80.00%)

     288.173949589 seconds time elapsed                                          ( +-  0.07% )

