# started on Tue May  2 11:04:08 2017


 Performance counter stats for 'rdtset -r 4 -c 4 -t cpu=4;l3=0x3 ../run_base_ref_amd64-m64-gcc43-nn.0000/gromacs_base.amd64-m64-gcc43-nn -silent -deffnm gromacs -nice 0' (3 runs):

      502809666988      r5381d0                                                       ( +-  0.01% )  (80.00%)
         219528568      r5320d1                                                       ( +- 14.71% )  (80.00%)
      206344838773      r5382d0                                                       ( +-  0.03% )  (80.00%)
         857988909      cpu/config=0x5301b7,config1=0x3fbc000091/                                     ( +-  8.77% )  (80.00%)
        1207764802      cpu/config=0x5301bb,config1=0x3fbc008fff/                                     ( +-  7.55% )  (80.00%)

     303.392228613 seconds time elapsed                                          ( +-  0.85% )

