# started on Thu Apr 27 06:26:50 2017


 Performance counter stats for 'rdtset -r 4 -c 4 -t cpu=4;l3=0x1fff ../run_base_ref_amd64-m64-gcc43-nn.0000/gromacs_base.amd64-m64-gcc43-nn -silent -deffnm gromacs -nice 0' (3 runs):

      502773303244      r5381d0                                                       ( +-  0.01% )  (80.00%)
            224150      r5320d1                                                       ( +-  6.33% )  (80.00%)
      206363142589      r5382d0                                                       ( +-  0.03% )  (80.00%)
            983628      cpu/config=0x5301b7,config1=0x3fbc000091/                                     ( +- 23.84% )  (80.00%)
           1795669      cpu/config=0x5301bb,config1=0x3fbc008fff/                                     ( +- 18.39% )  (80.00%)

     287.648377144 seconds time elapsed                                          ( +-  0.24% )

