# started on Thu Apr 27 21:08:58 2017


 Performance counter stats for 'rdtset -r 4 -c 4 -t cpu=4;l3=0x7ff ../run_base_ref_amd64-m64-gcc43-nn.0000/h264ref_base.amd64-m64-gcc43-nn -d foreman_ref_encoder_baseline.cfg' (3 runs):

      192703164627      r5381d0                                                       ( +-  0.08% )  (80.00%)
            675483      r5320d1                                                       ( +-  0.72% )  (80.00%)
       35549826276      r5382d0                                                       ( +-  0.01% )  (80.00%)
           5111911      cpu/config=0x5301b7,config1=0x3fbc000091/                                     ( +-  0.73% )  (79.98%)
           7434304      cpu/config=0x5301bb,config1=0x3fbc008fff/                                     ( +-  0.97% )  (80.02%)

      59.358629304 seconds time elapsed                                          ( +-  0.10% )

