# started on Thu Apr 27 09:19:57 2017


 Performance counter stats for 'rdtset -r 4 -c 4 -t cpu=4;l3=0x1fff ../run_base_ref_amd64-m64-gcc43-nn.0000/h264ref_base.amd64-m64-gcc43-nn -d foreman_ref_encoder_baseline.cfg' (3 runs):

      192548454416      r5381d0                                                       ( +-  0.02% )  (80.00%)
            366088      r5320d1                                                       ( +-  4.03% )  (80.00%)
       35529980432      r5382d0                                                       ( +-  0.03% )  (80.00%)
           2426508      cpu/config=0x5301b7,config1=0x3fbc000091/                                     ( +-  4.96% )  (79.99%)
           3708981      cpu/config=0x5301bb,config1=0x3fbc008fff/                                     ( +-  3.33% )  (80.01%)

      59.299091056 seconds time elapsed                                          ( +-  0.14% )

