# started on Tue May  9 03:32:44 2017


 Performance counter stats for 'rdtset -r 4 -c 4 -t cpu=4;l3=0xff ../run_base_ref_amd64-m64-gcc43-nn.0000/hmmer_base.amd64-m64-gcc43-nn nph3.hmm swiss41' (3 runs):

      384273728557      r5381d0                                                       ( +-  0.04% )  (80.00%)
            535141      r5320d1                                                       ( +-  1.61% )  (80.00%)
      136891126268      r5382d0                                                       ( +-  0.00% )  (80.00%)
          18606936      cpu/config=0x5301b7,config1=0x3fbc000091/                                     ( +-  1.43% )  (80.00%)
          41428380      cpu/config=0x5301bb,config1=0x3fbc008fff/                                     ( +-  0.49% )  (80.00%)

     107.847885034 seconds time elapsed                                          ( +-  0.07% )

