# started on Tue May  9 01:29:22 2017


 Performance counter stats for 'rdtset -r 4 -c 4 -t cpu=4;l3=0x7fff ../run_base_ref_amd64-m64-gcc43-nn.0000/hmmer_base.amd64-m64-gcc43-nn nph3.hmm swiss41' (3 runs):

      383977396849      r5381d0                                                       ( +-  0.00% )  (80.00%)
            437616      r5320d1                                                       ( +-  0.96% )  (80.00%)
      136951672488      r5382d0                                                       ( +-  0.05% )  (80.00%)
           3718876      cpu/config=0x5301b7,config1=0x3fbc000091/                                     ( +-  2.54% )  (80.00%)
           7634334      cpu/config=0x5301bb,config1=0x3fbc008fff/                                     ( +-  2.89% )  (80.00%)

     107.833245175 seconds time elapsed                                          ( +-  0.06% )

