# started on Tue May  9 02:22:05 2017


 Performance counter stats for 'rdtset -r 4 -c 4 -t cpu=4;l3=0xfff ../run_base_ref_amd64-m64-gcc43-nn.0000/hmmer_base.amd64-m64-gcc43-nn nph3.hmm swiss41' (3 runs):

      383985550272      r5381d0                                                       ( +-  0.00% )  (80.00%)
            459539      r5320d1                                                       ( +-  0.08% )  (80.00%)
      136917279455      r5382d0                                                       ( +-  0.00% )  (80.00%)
           6944199      cpu/config=0x5301b7,config1=0x3fbc000091/                                     ( +-  1.51% )  (80.00%)
          14958108      cpu/config=0x5301bb,config1=0x3fbc008fff/                                     ( +-  2.06% )  (80.00%)

     107.766940368 seconds time elapsed                                          ( +-  0.01% )

