# started on Mon May  1 18:42:13 2017


 Performance counter stats for 'rdtset -r 4 -c 4 -t cpu=4;l3=0x1f ../run_base_ref_amd64-m64-gcc43-nn.0000/lbm_base.amd64-m64-gcc43-nn 3000 reference.dat 0 0 100_100_130_ldc.of' (3 runs):

      244581993988      r5381d0                                                       ( +-  0.05% )  (80.00%)
          12378353      r5320d1                                                       ( +-  1.25% )  (80.00%)
      124915785603      r5382d0                                                       ( +-  0.01% )  (80.00%)
        8850227225      cpu/config=0x5301b7,config1=0x3fbc000091/                                     ( +-  0.10% )  (80.00%)
       22972397118      cpu/config=0x5301bb,config1=0x3fbc008fff/                                     ( +-  0.21% )  (80.00%)

     354.242344325 seconds time elapsed                                          ( +-  0.03% )

