# started on Wed May 10 10:49:04 2017


 Performance counter stats for 'rdtset -r 4 -c 4 -t cpu=4;l3=0x3 ../run_base_ref_amd64-m64-gcc43-nn.0000/leslie3d_base.amd64-m64-gcc43-nn' (3 runs):

      172640677349      r5381d0                                                       ( +-100.00% )
         346472216      r5320d1                                                       ( +-100.00% )
       52622510991      r5382d0                                                       ( +-100.00% )
        7941924585      cpu/config=0x5301b7,config1=0x3fbc008fff/                                     ( +-100.00% )

     102.377958254 seconds time elapsed                                          ( +- 99.99% )

