# started on Tue May  2 00:25:48 2017


 Performance counter stats for 'rdtset -r 4 -c 4 -t cpu=4;l3=0xf ../run_base_ref_amd64-m64-gcc43-nn.0000/libquantum_base.amd64-m64-gcc43-nn 1397 8' (3 runs):

      654307179611      r5381d0                                                       ( +-  0.01% )  (80.00%)
        1551285658      r5320d1                                                       ( +-  2.94% )  (80.00%)
       78938286116      r5382d0                                                       ( +-  0.13% )  (80.00%)
       27921311308      cpu/config=0x5301b7,config1=0x3fbc000091/                                     ( +-  0.09% )  (80.00%)
       39804147387      cpu/config=0x5301bb,config1=0x3fbc008fff/                                     ( +-  0.09% )  (80.00%)

     365.516485453 seconds time elapsed                                          ( +-  0.17% )

