# started on Mon May  1 11:39:45 2017


 Performance counter stats for 'rdtset -r 4 -c 4 -t cpu=4;l3=0x3f ../run_base_ref_amd64-m64-gcc43-nn.0000/libquantum_base.amd64-m64-gcc43-nn 1397 8' (3 runs):

      654428879249      r5381d0                                                       ( +-  0.01% )  (80.02%)
        1619238323      r5320d1                                                       ( +-  4.86% )  (80.00%)
       78928034234      r5382d0                                                       ( +-  0.08% )  (80.00%)
       27747707236      cpu/config=0x5301b7,config1=0x3fbc000091/                                     ( +-  0.19% )  (80.00%)
       39819135074      cpu/config=0x5301bb,config1=0x3fbc008fff/                                     ( +-  0.10% )  (79.98%)

     362.861848924 seconds time elapsed                                          ( +-  0.47% )

