# started on Tue Apr 25 16:24:45 2017


 Performance counter stats for 'rdtset -r 4 -c 4 -t cpu=4;l3=0xfffff ../run_base_ref_amd64-m64-gcc43-nn.0000/libquantum_base.amd64-m64-gcc43-nn 1397 8' (3 runs):

      654329596348      r5381d0                                                       ( +-  0.01% )  (80.01%)
        1449716267      r5320d1                                                       ( +-  0.63% )  (80.00%)
       78919554730      r5382d0                                                       ( +-  0.06% )  (80.00%)
       19726894307      cpu/config=0x5301b7,config1=0x3fbc000091/                                     ( +-  0.77% )  (80.00%)
       30425686928      cpu/config=0x5301bb,config1=0x3fbc008fff/                                     ( +-  0.52% )  (79.99%)

     330.289766515 seconds time elapsed                                          ( +-  0.79% )

