# started on Wed Apr 26 12:20:11 2017


 Performance counter stats for 'rdtset -r 4 -c 4 -t cpu=4;l3=0xffff ../run_base_ref_amd64-m64-gcc43-nn.0000/mcf_base.amd64-m64-gcc43-nn inp.in' (3 runs):

      106577137420      r5381d0                                                       ( +-  0.03% )  (80.00%)
        1968254132      r5320d1                                                       ( +-  0.92% )  (80.00%)
       31730838443      r5382d0                                                       ( +-  0.11% )  (80.00%)
        4804132640      cpu/config=0x5301b7,config1=0x3fbc000091/                                     ( +-  0.48% )  (80.00%)
        8597079012      cpu/config=0x5301bb,config1=0x3fbc008fff/                                     ( +-  0.31% )  (80.00%)

     222.949324064 seconds time elapsed                                          ( +-  0.75% )

