# started on Tue May  9 20:17:43 2017


 Performance counter stats for 'rdtset -r 4 -c 4 -t cpu=4;l3=0x3ffff ../run_base_ref_amd64-m64-gcc43-nn.0000/milc_base.amd64-m64-gcc43-nn' (3 runs):

      112842017164      r5381d0                                                       ( +-100.00% )
        2738414346      r5320d1                                                       ( +-100.00% )
       37245651290      r5382d0                                                       ( +-100.00% )
       10324009925      cpu/config=0x5301b7,config1=0x3fbc008fff/                                     ( +-100.00% )

     143.261312438 seconds time elapsed                                          ( +-100.00% )

