# started on Wed Apr 26 02:07:31 2017


 Performance counter stats for 'rdtset -r 4 -c 4 -t cpu=4;l3=0x3ffff ../run_base_ref_amd64-m64-gcc43-nn.0000/namd_base.amd64-m64-gcc43-nn --input namd.input --iterations 38 --output namd.out' (3 runs):

      525779514928      r5381d0                                                       ( +-  0.00% )  (80.00%)
           2263495      r5320d1                                                       ( +-  2.16% )  (80.00%)
      132686481693      r5382d0                                                       ( +-  0.01% )  (79.99%)
           7837902      cpu/config=0x5301b7,config1=0x3fbc000091/                                     ( +-  1.77% )  (80.01%)
          23944276      cpu/config=0x5301bb,config1=0x3fbc008fff/                                     ( +-  0.42% )  (80.00%)

     321.824967486 seconds time elapsed                                          ( +-  0.06% )

