# started on Wed Apr 26 16:29:18 2017


 Performance counter stats for 'rdtset -r 4 -c 4 -t cpu=4;l3=0xffff ../run_base_ref_amd64-m64-gcc43-nn.0000/omnetpp_base.amd64-m64-gcc43-nn omnetpp.ini' (3 runs):

      169746879147      r5381d0                                                       ( +-  0.07% )  (80.00%)
        2248925532      r5320d1                                                       ( +-  0.36% )  (80.00%)
       96334538063      r5382d0                                                       ( +-  0.03% )  (79.99%)
        3703803020      cpu/config=0x5301b7,config1=0x3fbc000091/                                     ( +-  0.27% )  (80.02%)
        4744259168      cpu/config=0x5301bb,config1=0x3fbc008fff/                                     ( +-  0.34% )  (80.00%)

     293.646428126 seconds time elapsed                                          ( +-  2.60% )

