# started on Thu Apr 27 15:55:12 2017


 Performance counter stats for 'rdtset -r 4 -c 4 -t cpu=4;l3=0xfff ../run_base_ref_amd64-m64-gcc43-nn.0000/omnetpp_base.amd64-m64-gcc43-nn omnetpp.ini' (3 runs):

      169875847664      r5381d0                                                       ( +-  0.09% )  (79.99%)
        3217323766      r5320d1                                                       ( +-  1.21% )  (80.01%)
       96395858061      r5382d0                                                       ( +-  0.04% )  (80.00%)
        5154849511      cpu/config=0x5301b7,config1=0x3fbc000091/                                     ( +-  1.66% )  (80.00%)
        6634377269      cpu/config=0x5301bb,config1=0x3fbc008fff/                                     ( +-  1.58% )  (80.00%)

     335.038864362 seconds time elapsed                                          ( +-  4.05% )

