# started on Tue May  2 09:45:15 2017


 Performance counter stats for 'rdtset -r 4 -c 4 -t cpu=4;l3=0x3 ../run_base_ref_amd64-m64-gcc43-nn.0000/perlbench_base.amd64-m64-gcc43-nn -I./lib checkspam.pl 2500 5 25 11 150 1 1 1 1' (3 runs):

      288784521962      r5381d0                                                       ( +-  0.04% )  (80.00%)
         466838405      r5320d1                                                       ( +-  0.40% )  (80.00%)
      145031125631      r5382d0                                                       ( +-  0.01% )  (80.00%)
         775606884      cpu/config=0x5301b7,config1=0x3fbc000091/                                     ( +-  0.55% )  (80.00%)
        1132509617      cpu/config=0x5301bb,config1=0x3fbc008fff/                                     ( +-  0.72% )  (80.00%)

     174.128389667 seconds time elapsed                                          ( +-  0.39% )

