# started on Sun Apr 30 19:34:33 2017


 Performance counter stats for 'rdtset -r 4 -c 4 -t cpu=4;l3=0xff ../run_base_ref_amd64-m64-gcc43-nn.0000/perlbench_base.amd64-m64-gcc43-nn -I./lib checkspam.pl 2500 5 25 11 150 1 1 1 1' (3 runs):

      288531503695      r5381d0                                                       ( +-  0.03% )  (80.00%)
          55836270      r5320d1                                                       ( +-  9.37% )  (80.00%)
      145096107960      r5382d0                                                       ( +-  0.02% )  (80.00%)
          98991087      cpu/config=0x5301b7,config1=0x3fbc000091/                                     ( +-  7.48% )  (80.00%)
         139951427      cpu/config=0x5301bb,config1=0x3fbc008fff/                                     ( +-  7.12% )  (80.00%)

     143.055040745 seconds time elapsed                                          ( +-  0.58% )

