# started on Mon May  1 04:01:01 2017


 Performance counter stats for 'rdtset -r 4 -c 4 -t cpu=4;l3=0x7f ../run_base_ref_amd64-m64-gcc43-nn.0000/povray_base.amd64-m64-gcc43-nn SPEC-benchmark-ref.ini' (3 runs):

      356478077921      r5381d0                                                       ( +-  0.00% )  (80.00%)
             74809      r5320d1                                                       ( +-  0.71% )  (80.00%)
      140577995461      r5382d0                                                       ( +-  0.02% )  (80.00%)
            136239      cpu/config=0x5301b7,config1=0x3fbc000091/                                     ( +-  0.51% )  (80.00%)
            327925      cpu/config=0x5301bb,config1=0x3fbc008fff/                                     ( +-  1.37% )  (80.00%)

     134.674775734 seconds time elapsed                                          ( +-  0.02% )

