# started on Thu Apr 27 14:13:56 2017


 Performance counter stats for 'rdtset -r 4 -c 4 -t cpu=4;l3=0xfff ../run_base_ref_amd64-m64-gcc43-nn.0000/sjeng_base.amd64-m64-gcc43-nn ref.txt' (3 runs):

      543418616823      r5381d0                                                       ( +-  0.00% )  (80.00%)
         600032544      r5320d1                                                       ( +-  0.07% )  (79.99%)
      197116835584      r5382d0                                                       ( +-  0.00% )  (80.01%)
         654918529      cpu/config=0x5301b7,config1=0x3fbc000091/                                     ( +-  0.08% )  (80.00%)
         781826201      cpu/config=0x5301bb,config1=0x3fbc008fff/                                     ( +-  0.05% )  (80.00%)

     446.380593048 seconds time elapsed                                          ( +-  0.11% )

