# started on Fri Apr 28 02:07:00 2017


 Performance counter stats for 'rdtset -r 4 -c 4 -t cpu=4;l3=0x3ff ../run_base_ref_amd64-m64-gcc43-nn.0000/sjeng_base.amd64-m64-gcc43-nn ref.txt' (3 runs):

      543393082709      r5381d0                                                       ( +-  0.00% )  (80.00%)
         626103169      r5320d1                                                       ( +-  0.29% )  (80.00%)
      197119366195      r5382d0                                                       ( +-  0.00% )  (79.99%)
         684859512      cpu/config=0x5301b7,config1=0x3fbc000091/                                     ( +-  0.30% )  (80.00%)
         817165310      cpu/config=0x5301bb,config1=0x3fbc008fff/                                     ( +-  0.24% )  (80.01%)

     447.273152516 seconds time elapsed                                          ( +-  0.10% )

