# started on Tue Apr 25 15:43:56 2017


 Performance counter stats for 'rdtset -r 4 -c 4 -t cpu=4;l3=0xfffff ../run_base_ref_amd64-m64-gcc43-nn.0000/sjeng_base.amd64-m64-gcc43-nn ref.txt' (3 runs):

      543376040839      r5381d0                                                       ( +-  0.00% )  (79.99%)
         515812788      r5320d1                                                       ( +-  0.30% )  (80.01%)
      197132014413      r5382d0                                                       ( +-  0.00% )  (80.00%)
         562367834      cpu/config=0x5301b7,config1=0x3fbc000091/                                     ( +-  0.28% )  (80.00%)
         670635653      cpu/config=0x5301bb,config1=0x3fbc008fff/                                     ( +-  0.26% )  (80.00%)

     443.524583902 seconds time elapsed                                          ( +-  0.14% )

