# started on Wed Apr 26 08:11:08 2017


 Performance counter stats for 'rdtset -r 4 -c 4 -t cpu=4;l3=0x1ffff ../run_base_ref_amd64-m64-gcc43-nn.0000/soplex_base.amd64-m64-gcc43-nn -s1 -e -m45000 pds-50.mps' (3 runs):

      106992154856      r5381d0                                                       ( +-  0.03% )  (80.00%)
         176665579      r5320d1                                                       ( +-  2.21% )  (80.00%)
       26762464080      r5382d0                                                       ( +-  0.01% )  (80.00%)
         681776220      cpu/config=0x5301b7,config1=0x3fbc000091/                                     ( +-  1.76% )  (80.00%)
        1087411327      cpu/config=0x5301bb,config1=0x3fbc008fff/                                     ( +-  1.45% )  (80.00%)

     109.712401898 seconds time elapsed                                          ( +-  0.12% )

