# started on Tue May  2 20:30:41 2017


 Performance counter stats for 'rdtset -r 4 -c 4 -t cpu=4;l3=0x1 ../run_base_ref_amd64-m64-gcc43-nn.0000/soplex_base.amd64-m64-gcc43-nn -s1 -e -m45000 pds-50.mps' (3 runs):

      107439420718      r5381d0                                                       ( +-  0.01% )  (80.00%)
        3852975676      r5320d1                                                       ( +-  0.05% )  (79.99%)
       26894187874      r5382d0                                                       ( +-  0.06% )  (80.01%)
       10156955907      cpu/config=0x5301b7,config1=0x3fbc000091/                                     ( +-  0.10% )  (80.00%)
       13634104788      cpu/config=0x5301bb,config1=0x3fbc008fff/                                     ( +-  0.13% )  (80.00%)

     243.967472415 seconds time elapsed                                          ( +-  0.89% )

