# started on Tue May  2 05:27:14 2017


 Performance counter stats for 'rdtset -r 4 -c 4 -t cpu=4;l3=0x7 ../run_base_ref_amd64-m64-gcc43-nn.0000/soplex_base.amd64-m64-gcc43-nn -s1 -e -m45000 pds-50.mps' (3 runs):

      107195597035      r5381d0                                                       ( +-  0.10% )  (80.00%)
        2251609486      r5320d1                                                       ( +-  1.49% )  (80.00%)
       26811066980      r5382d0                                                       ( +-  0.16% )  (80.00%)
        6397422942      cpu/config=0x5301b7,config1=0x3fbc000091/                                     ( +-  1.51% )  (80.00%)
        8800383760      cpu/config=0x5301bb,config1=0x3fbc008fff/                                     ( +-  1.32% )  (80.00%)

     193.915942952 seconds time elapsed                                          ( +-  0.22% )

