# started on Fri Apr 28 01:15:40 2017


 Performance counter stats for 'rdtset -r 4 -c 4 -t cpu=4;l3=0x3ff ../run_base_ref_amd64-m64-gcc43-nn.0000/soplex_base.amd64-m64-gcc43-nn -s1 -e -m45000 pds-50.mps' (3 runs):

      107095546814      r5381d0                                                       ( +-  0.02% )  (80.00%)
         730602963      r5320d1                                                       ( +-  0.75% )  (79.99%)
       26788890406      r5382d0                                                       ( +-  0.03% )  (80.01%)
        2463420140      cpu/config=0x5301b7,config1=0x3fbc000091/                                     ( +-  1.08% )  (80.00%)
        3557681581      cpu/config=0x5301bb,config1=0x3fbc008fff/                                     ( +-  0.35% )  (80.00%)

     138.146137201 seconds time elapsed                                          ( +-  0.61% )

