# started on Mon May  1 10:05:16 2017


 Performance counter stats for 'rdtset -r 4 -c 4 -t cpu=4;l3=0x3f ../run_base_ref_amd64-m64-gcc43-nn.0000/soplex_base.amd64-m64-gcc43-nn -s1 -e -m45000 pds-50.mps' (3 runs):

      107168302559      r5381d0                                                       ( +-  0.05% )  (79.98%)
        1401029112      r5320d1                                                       ( +-  0.53% )  (80.00%)
       26830352028      r5382d0                                                       ( +-  0.03% )  (80.03%)
        4257343214      cpu/config=0x5301b7,config1=0x3fbc000091/                                     ( +-  0.35% )  (79.97%)
        5921759158      cpu/config=0x5301bb,config1=0x3fbc008fff/                                     ( +-  0.31% )  (80.03%)

     166.951087605 seconds time elapsed                                          ( +-  0.43% )

