# started on Sun Apr 30 15:43:06 2017


 Performance counter stats for 'rdtset -r 4 -c 4 -t cpu=4;l3=0x1ff ../run_base_ref_amd64-m64-gcc43-nn.0000/soplex_base.amd64-m64-gcc43-nn -s1 -e -m45000 pds-50.mps' (3 runs):

      107134579207      r5381d0                                                       ( +-  0.06% )  (80.00%)
         875514409      r5320d1                                                       ( +-  0.33% )  (80.00%)
       26788207581      r5382d0                                                       ( +-  0.05% )  (80.00%)
        2851851587      cpu/config=0x5301b7,config1=0x3fbc000091/                                     ( +-  0.29% )  (80.00%)
        4076043923      cpu/config=0x5301bb,config1=0x3fbc008fff/                                     ( +-  0.17% )  (80.00%)

     145.023052223 seconds time elapsed                                          ( +-  0.33% )

