# started on Sun Apr 30 21:46:20 2017


 Performance counter stats for 'rdtset -r 4 -c 4 -t cpu=4;l3=0xff ../run_base_ref_amd64-m64-gcc43-nn.0000/soplex_base.amd64-m64-gcc43-nn -s1 -e -m45000 pds-50.mps' (3 runs):

      107166456005      r5381d0                                                       ( +-  0.02% )  (80.00%)
        1049131649      r5320d1                                                       ( +-  0.49% )  (80.00%)
       26787768878      r5382d0                                                       ( +-  0.10% )  (80.00%)
        3332654935      cpu/config=0x5301b7,config1=0x3fbc000091/                                     ( +-  0.89% )  (80.00%)
        4689982444      cpu/config=0x5301bb,config1=0x3fbc008fff/                                     ( +-  0.73% )  (80.00%)

     152.853072898 seconds time elapsed                                          ( +-  0.30% )

