# started on Wed Apr 26 11:20:39 2017


 Performance counter stats for 'rdtset -r 4 -c 4 -t cpu=4;l3=0x1ffff ../run_base_ref_amd64-m64-gcc43-nn.0000/sphinx_livepretend_base.amd64-m64-gcc43-nn ctlfile . args.an4' (3 runs):

      874212742945      r5381d0                                                       ( +-  0.01% )  (80.01%)
           2513232      r5320d1                                                       ( +-  5.58% )  (80.00%)
       62559270913      r5382d0                                                       ( +-  0.06% )  (80.00%)
          10040407      cpu/config=0x5301b7,config1=0x3fbc000091/                                     ( +- 11.61% )  (80.00%)
          13005050      cpu/config=0x5301bb,config1=0x3fbc008fff/                                     ( +- 11.11% )  (79.99%)

     448.330258621 seconds time elapsed                                          ( +-  0.28% )

