# started on Wed May  3 01:31:49 2017


 Performance counter stats for 'rdtset -r 4 -c 4 -t cpu=4;l3=0x1 ../run_base_ref_amd64-m64-gcc43-nn.0000/Xalan_base.amd64-m64-gcc43-nn -v t5.xml xalanc.xsl' (3 runs):

      300828820452      r5381d0                                                       ( +-  0.03% )  (80.00%)
        3790816986      r5320d1                                                       ( +-  0.19% )  (80.00%)
       64436387527      r5382d0                                                       ( +-  0.03% )  (80.00%)
        9592361607      cpu/config=0x5301b7,config1=0x3fbc000091/                                     ( +-  0.60% )  (80.00%)
       13429782905      cpu/config=0x5301bb,config1=0x3fbc008fff/                                     ( +-  0.27% )  (80.00%)

     416.420102815 seconds time elapsed                                          ( +-  0.93% )

