# started on Tue May  2 03:56:21 2017


 Performance counter stats for 'rdtset -r 4 -c 4 -t cpu=4;l3=0x7 ../run_base_ref_amd64-m64-gcc43-nn.0000/zeusmp_base.amd64-m64-gcc43-nn' (3 runs):

      432385085975      r5381d0                                                       ( +-  0.01% )  (79.99%)
        2037387241      r5320d1                                                       ( +-  0.13% )  (80.01%)
      136101421840      r5382d0                                                       ( +-  0.01% )  (80.00%)
        5445138559      cpu/config=0x5301b7,config1=0x3fbc000091/                                     ( +-  0.15% )  (80.01%)
        8857496855      cpu/config=0x5301bb,config1=0x3fbc008fff/                                     ( +-  0.17% )  (80.00%)

     357.039179415 seconds time elapsed                                          ( +-  0.11% )

